<?xml version="1.0" encoding="UTF-8" standalone="no"?>
<!-- Created with Inkscape (http://www.inkscape.org/) -->

<svg
   xmlns:dc="http://purl.org/dc/elements/1.1/"
   xmlns:cc="http://creativecommons.org/ns#"
   xmlns:rdf="http://www.w3.org/1999/02/22-rdf-syntax-ns#"
   xmlns:svg="http://www.w3.org/2000/svg"
   xmlns="http://www.w3.org/2000/svg"
   xmlns:sodipodi="http://sodipodi.sourceforge.net/DTD/sodipodi-0.dtd"
   xmlns:inkscape="http://www.inkscape.org/namespaces/inkscape"
   width="132.12852mm"
   height="69.968063mm"
   viewBox="0 0 132.12852 69.968063"
   version="1.1"
   id="svg8"
   inkscape:version="0.92.5 (2060ec1f9f, 2020-04-08)"
   sodipodi:docname="blockStructure.svg">
  <defs
     id="defs2" />
  <sodipodi:namedview
     id="base"
     pagecolor="#ffffff"
     bordercolor="#666666"
     borderopacity="1.0"
     inkscape:pageopacity="0.0"
     inkscape:pageshadow="2"
     inkscape:zoom="0.49497475"
     inkscape:cx="-56.925978"
     inkscape:cy="-5.5163637"
     inkscape:document-units="mm"
     inkscape:current-layer="layer1"
     showgrid="true"
     inkscape:window-width="1920"
     inkscape:window-height="1016"
     inkscape:window-x="0"
     inkscape:window-y="27"
     inkscape:window-maximized="1"
     fit-margin-top="0"
     fit-margin-left="0"
     fit-margin-right="0"
     fit-margin-bottom="0">
    <inkscape:grid
       type="xygrid"
       id="grid815"
       originx="-19.667352"
       originy="-139.22916" />
  </sodipodi:namedview>
  <metadata
     id="metadata5">
    <rdf:RDF>
      <cc:Work
         rdf:about="">
        <dc:format>image/svg+xml</dc:format>
        <dc:type
           rdf:resource="http://purl.org/dc/dcmitype/StillImage" />
        <dc:title></dc:title>
      </cc:Work>
    </rdf:RDF>
  </metadata>
  <g
     inkscape:label="Layer 1"
     inkscape:groupmode="layer"
     id="layer1"
     transform="translate(-19.667353,-87.802775)">
    <rect
       style="fill:#ffffff;fill-opacity:1;stroke:#17000e;stroke-width:0.35277778;stroke-miterlimit:4;stroke-dasharray:none;stroke-opacity:1"
       id="rect817"
       width="68.791672"
       height="68.791672"
       x="19.84375"
       y="87.979164" />
    <rect
       style="fill:none;fill-opacity:1;stroke:#23000e;stroke-width:0.35277778;stroke-miterlimit:4;stroke-dasharray:none;stroke-opacity:1"
       id="rect817-3"
       width="34.395836"
       height="68.791672"
       x="19.843746"
       y="87.979164" />
    <rect
       style="fill:none;fill-opacity:1;stroke:#23000e;stroke-width:0.35277778;stroke-miterlimit:4;stroke-dasharray:none;stroke-opacity:1"
       id="rect817-3-6"
       width="34.395836"
       height="68.791672"
       x="122.375"
       y="-88.635414"
       transform="rotate(90)" />
    <rect
       style="fill:none;fill-opacity:1;stroke:#00000e;stroke-width:0.26222852;stroke-miterlimit:4;stroke-dasharray:none;stroke-opacity:1"
       id="rect817-3-6-7-5"
       width="17.19792"
       height="17.197912"
       x="54.239582"
       y="139.57292" />
    <rect
       style="fill:none;fill-opacity:1;stroke:#ff080e;stroke-width:2;stroke-miterlimit:4;stroke-dasharray:none;stroke-opacity:1"
       id="rect817-3-6-6"
       width="34.395836"
       height="34.39584"
       x="122.375"
       y="-88.635422"
       transform="rotate(90)" />
    <rect
       style="fill:none;fill-opacity:1;stroke:#00000e;stroke-width:0.5;stroke-miterlimit:4;stroke-dasharray:none;stroke-opacity:1"
       id="rect817-3-6-7-3"
       width="17.19792"
       height="17.197914"
       x="122.37499"
       y="-71.4375"
       transform="rotate(90)" />
    <rect
       style="fill:none;fill-opacity:1;stroke:#00000e;stroke-width:0.5;stroke-miterlimit:4;stroke-dasharray:none;stroke-opacity:1"
       id="rect817-3-6-7"
       width="17.19792"
       height="17.197914"
       x="139.57292"
       y="-88.635414"
       transform="rotate(90)" />
    <rect
       style="fill:none;fill-opacity:1;stroke:#23000e;stroke-width:0.5;stroke-miterlimit:4;stroke-dasharray:none;stroke-opacity:1"
       id="rect817-3-6-7-2"
       width="17.19792"
       height="17.197914"
       x="122.375"
       y="-88.635414"
       transform="rotate(90)" />
    <rect
       style="fill:none;fill-opacity:1;stroke:#23000e;stroke-width:0.5;stroke-miterlimit:4;stroke-dasharray:none;stroke-opacity:1"
       id="rect817-3-6-7-2-9"
       width="17.19792"
       height="17.197914"
       x="139.57291"
       y="-71.4375"
       transform="rotate(90)" />
    <text
       xml:space="preserve"
       style="font-style:normal;font-variant:normal;font-weight:normal;font-stretch:normal;font-size:10.58333302px;line-height:1.25;font-family:times;-inkscape-font-specification:times;letter-spacing:0px;word-spacing:0px;fill:#000000;fill-opacity:1;stroke:none;stroke-width:0.26458332"
       x="29.905975"
       y="105.49807"
       id="text956"><tspan
         sodipodi:role="line"
         id="tspan954"
         x="29.905975"
         y="105.49807"
         style="font-style:normal;font-variant:normal;font-weight:normal;font-stretch:normal;font-family:times;-inkscape-font-specification:times;stroke-width:0.26458332">Fluid blocks</tspan></text>
    <text
       xml:space="preserve"
       style="font-style:normal;font-variant:normal;font-weight:normal;font-stretch:normal;font-size:10.58333302px;line-height:1.25;font-family:times;-inkscape-font-specification:times;letter-spacing:0px;word-spacing:0px;fill:#ff0000;fill-opacity:1;stroke:none;stroke-width:0.26458332"
       x="92.2966"
       y="142.99437"
       id="text960"><tspan
         sodipodi:role="line"
         id="tspan958"
         x="92.2966"
         y="142.99437"
         style="font-style:normal;font-variant:normal;font-weight:normal;font-stretch:normal;font-family:times;-inkscape-font-specification:times;fill:#ff0000;fill-opacity:1;stroke-width:0.26458332">Overlap block</tspan></text>
    <path
       style="fill:none;stroke:#0000ff;stroke-width:1;stroke-linecap:butt;stroke-linejoin:miter;stroke-miterlimit:4;stroke-dasharray:none;stroke-opacity:1"
       d="m 56.885416,156.77083 v -31.75"
       id="path962"
       inkscape:connector-curvature="0" />
    <circle
       id="path964"
       style="fill:#000000;stroke:none;stroke-width:0.26458332"
       cx="56.885414"
       cy="125.02083"
       r="0.39687499" />
    <path
       style="fill:none;stroke:#0000ff;stroke-width:1;stroke-linecap:butt;stroke-linejoin:miter;stroke-miterlimit:4;stroke-dasharray:none;stroke-opacity:1"
       d="m 56.885416,125.02083 h 31.75"
       id="path966"
       inkscape:connector-curvature="0" />
    <text
       xml:space="preserve"
       style="font-style:normal;font-variant:normal;font-weight:normal;font-stretch:normal;font-size:10.58333302px;line-height:1.25;font-family:times;-inkscape-font-specification:times;letter-spacing:0px;word-spacing:0px;fill:#0000ff;fill-opacity:1;stroke:none;stroke-width:0.26458332"
       x="91.388023"
       y="128.7626"
       id="text970"><tspan
         sodipodi:role="line"
         id="tspan968"
         x="91.388023"
         y="128.7626"
         style="font-style:normal;font-variant:normal;font-weight:normal;font-stretch:normal;font-family:times;-inkscape-font-specification:times;fill:#0000ff;fill-opacity:1;stroke-width:0.26458332">Interface</tspan></text>
  </g>
</svg>
